module task_making

go 1.22

require (
	github.com/appleboy/gin-jwt/v2 v2.9.1
	github.com/gin-contrib/cors v1.4.0
	github.com/gin-contrib/static v0.0.1
	github.com/gin-gonic/gin v1.9.0
	github.com/go-playground/validator/v10 v10.12.0
	github.com/go-redis/redis v6.15.9+incompatible
	github.com/go-redsync/redsync/v3 v3.1.0
	github.com/golang-jwt/jwt/v4 v4.4.3
	github.com/jinzhu/copier v0.3.5
	github.com/jinzhu/now v1.1.5
	github.com/liip/sheriff v0.11.1
	github.com/pkg/errors v0.9.1
	github.com/pressly/goose v2.7.0+incompatible
	github.com/prometheus/client_golang v1.15.1
	github.com/stoewer/go-strcase v1.3.0
	github.com/subosito/gotenv v1.4.2
	go.uber.org/fx v1.19.2
	golang.org/x/crypto v0.7.0
	golang.org/x/text v0.9.0
	gorm.io/driver/mysql v1.5.0
	gorm.io/driver/postgres v1.5.0
	gorm.io/gorm v1.25.0
)

require (
	github.com/beorn7/perks v1.0.1 // indirect
	github.com/bytedance/sonic v1.8.0 // indirect
	github.com/cespare/xxhash/v2 v2.2.0 // indirect
	github.com/chenzhuoyu/base64x v0.0.0-20221115062448-fe3a3abad311 // indirect
	github.com/fsnotify/fsnotify v1.6.0 // indirect
	github.com/gin-contrib/sse v0.1.0 // indirect
	github.com/go-playground/locales v0.14.1 // indirect
	github.com/go-playground/universal-translator v0.18.1 // indirect
	github.com/go-sql-driver/mysql v1.7.0 // indirect
	github.com/goccy/go-json v0.10.0 // indirect
	github.com/golang/protobuf v1.5.3 // indirect
	github.com/hashicorp/errwrap v1.0.0 // indirect
	github.com/hashicorp/go-multierror v1.1.1 // indirect
	github.com/hashicorp/go-version v1.2.0 // indirect
	github.com/jackc/pgpassfile v1.0.0 // indirect
	github.com/jackc/pgservicefile v0.0.0-20221227161230-091c0ba34f0a // indirect
	github.com/jackc/pgx/v5 v5.3.0 // indirect
	github.com/jinzhu/inflection v1.0.0 // indirect
	github.com/json-iterator/go v1.1.12 // indirect
	github.com/klauspost/cpuid/v2 v2.0.9 // indirect
	github.com/leodido/go-urn v1.2.2 // indirect
	github.com/mattn/go-isatty v0.0.17 // indirect
	github.com/matttproud/golang_protobuf_extensions v1.0.4 // indirect
	github.com/modern-go/concurrent v0.0.0-20180306012644-bacd9c7ef1dd // indirect
	github.com/modern-go/reflect2 v1.0.2 // indirect
	github.com/onsi/gomega v1.26.0 // indirect
	github.com/pelletier/go-toml/v2 v2.0.6 // indirect
	github.com/prometheus/client_model v0.3.0 // indirect
	github.com/prometheus/common v0.42.0 // indirect
	github.com/prometheus/procfs v0.9.0 // indirect
	github.com/rogpeppe/go-internal v1.9.0 // indirect
	github.com/twitchyliquid64/golang-asm v0.15.1 // indirect
	github.com/ugorji/go/codec v1.2.9 // indirect
	go.uber.org/atomic v1.9.0 // indirect
	go.uber.org/dig v1.16.1 // indirect
	go.uber.org/multierr v1.8.0 // indirect
	go.uber.org/zap v1.24.0 // indirect
	golang.org/x/arch v0.0.0-20210923205945-b76863e36670 // indirect
	golang.org/x/net v0.8.0 // indirect
	golang.org/x/sys v0.6.0 // indirect
	google.golang.org/protobuf v1.30.0 // indirect
	gopkg.in/yaml.v3 v3.0.1 // indirect
)
